4_clean_baseline
…
make outliter logical

bl_stats$bl_outlier <- as.logical(bl_stats$bl_outlier)

count how many trials have bad baseline

bl_stats %>%
  group_by(pp_no, emotion, muscle) %>%
  summarise(trialcount = n(), trialbad = sum(bl_outlier))

`summarise()` regrouping output by 'pp_no', 'emotion' (override with `.groups` argument)

# A tibble: 792 x 5
# Groups:   pp_no, emotion [396]
   pp_no emotion muscle trialcount trialbad
   <chr>   <dbl> <chr>       <int>    <int>
 1 pp401     121 brow            8        1
 2 pp401     121 cheek           8        1
 3 pp401     131 brow            8        1
 4 pp401     131 cheek           8        2
 5 pp401     232 brow            8        1
 6 pp401     232 cheek           8        1
 7 pp401     323 brow            8        1
 8 pp401     323 cheek           8        1
 9 pp401     424 brow            8        1
10 pp401     424 cheek           8        1
# … with 782 more rows
…
